{
  "https://reelgood.com/movie/little-miss-sunshine-2006": [
    "https://reelgood.com/movie/mike-birbiglia-the-new-one-2019",
    "https://reelgood.com/movie/die-hard-2-1990"
  ],
  "https://reelgood.com/movie/twelve-monkeys-1995": [
    "https://reelgood.com/movie/mike-birbiglia-the-new-one-2019",
    "https://reelgood.com/movie/bonnie-and-clyde-1967",
    "https://reelgood.com/movie/dazed-and-confused-1993"
  ],
  "https://reelgood.com/movie/dazed-and-confused-1993": [
    "https://reelgood.com/movie/mike-birbiglia-the-new-one-2019"
  ],
  "https://reelgood.com/movie/solaris-1972": [
    "https://reelgood.com/movie/little-miss-sunshine-2006",
    "https://reelgood.com/movie/this-is-the-end-2013",
    "https://reelgood.com/movie/the-irishman-2018"
  ],
  "https://reelgood.com/movie/mars-attacks-1996": [
    "https://reelgood.com/movie/the-act-of-killing-2012",
    "https://reelgood.com/movie/blade-runner-2049-2017",
    "https://reelgood.com/movie/love-actually-2003"
  ],
  "https://reelgood.com/movie/bonnie-and-clyde-1967": [
    "https://reelgood.com/movie/love-mercy-2015",
    "https://reelgood.com/movie/the-day-after-1983"
  ],
  "https://reelgood.com/movie/american-movie-1999": [
    "https://reelgood.com/movie/woodstock-three-days-that-defined-a-generation-2019",
    "https://reelgood.com/movie/the-social-dilemma-2020",
    "https://reelgood.com/movie/neal-brennan-blocks-2022"
  ],
  "https://reelgood.com/movie/woodstock-three-days-that-defined-a-generation-2019": [
    "https://reelgood.com/movie/world-of-tomorrow-2015"
  ],
  "https://reelgood.com/movie/love-mercy-2015": [
    "https://reelgood.com/movie/this-is-the-end-2013",
    "https://reelgood.com/movie/the-tinder-swindler-2022"
  ],
  "https://reelgood.com/movie/charlie-wilsons-war-2007": [
    "https://reelgood.com/movie/dazed-and-confused-1993",
    "https://reelgood.com/movie/star-wars-1977"
  ],
  "https://reelgood.com/movie/the-godfather-1972": [
    "https://reelgood.com/movie/world-of-tomorrow-2015",
    "https://reelgood.com/movie/gimme-shelter-1970",
    "https://reelgood.com/movie/nightcrawler-2014",
    "https://reelgood.com/movie/good-will-hunting-1997"
  ],
  "https://reelgood.com/movie/the-tinder-swindler-2022": [
    "https://reelgood.com/movie/this-is-the-end-2013"
  ],
  "https://reelgood.com/movie/good-night-oppy-2022": [
    "https://reelgood.com/movie/star-wars-1977",
    "https://reelgood.com/movie/ex-libris-new-york-public-library-2017",
    "https://reelgood.com/movie/se7en-1995"
  ],
  "https://reelgood.com/movie/the-alpinist-2021": [
    "https://reelgood.com/movie/shut-up-and-play-the-hits-2012",
    "https://reelgood.com/movie/american-insurrection-2021"
  ],
  "https://reelgood.com/movie/gimme-shelter-1970": [
    "https://reelgood.com/movie/little-miss-sunshine-2006",
    "https://reelgood.com/movie/zero-days-2016",
    "https://reelgood.com/movie/hotel-rwanda-2004"
  ],
  "https://reelgood.com/movie/from-justin-to-kelly-2003": [
    "https://reelgood.com/movie/ex-libris-new-york-public-library-2017",
    "https://reelgood.com/movie/beanie-mania-2021",
    "https://reelgood.com/movie/jfk-1991",
    "https://reelgood.com/movie/fargo-1996"
  ],
  "https://reelgood.com/movie/dr-strangelove-or-how-i-learned-to-stop-worrying-and-love-the-bomb-1964": [
    "https://reelgood.com/movie/zero-days-2016",
    "https://reelgood.com/movie/moonrise-kingdom-2012"
  ],
  "https://reelgood.com/movie/one-of-us-2017": [
    "https://reelgood.com/movie/neal-brennan-blocks-2022",
    "https://reelgood.com/movie/woodstock-1970"
  ],
  "https://reelgood.com/movie/shut-up-and-play-the-hits-2012": [
    "https://reelgood.com/movie/spiderman-no-way-home-2021"
  ],
  "https://reelgood.com/movie/miracle-on-34th-street-1947": [
    "https://reelgood.com/movie/the-girl-who-kicked-the-hornets-nest-2009",
    "https://reelgood.com/movie/the-lobster-2015"
  ],
  "https://reelgood.com/movie/nomadland-2020": [
    "https://reelgood.com/movie/woodstock-three-days-that-defined-a-generation-2019",
    "https://reelgood.com/movie/the-evil-dead-1981"
  ],
  "https://reelgood.com/movie/gone-in-sixty-seconds-2000": [
    "https://reelgood.com/movie/forrest-gump-1994",
    "https://reelgood.com/movie/dan-in-real-life-2007",
    "https://reelgood.com/movie/jaws-1975",
    "https://reelgood.com/movie/under-the-cherry-moon-1986"
  ],
  "https://reelgood.com/movie/heathers-1988": [
    "https://reelgood.com/movie/charlie-wilsons-war-2007",
    "https://reelgood.com/movie/gone-baby-gone-2007",
    "https://reelgood.com/movie/philadelphia-1993"
  ],
  "https://reelgood.com/movie/scott-pilgrim-vs-the-world-2010": [
    "https://reelgood.com/movie/the-social-dilemma-2020",
    "https://reelgood.com/movie/under-the-cherry-moon-1986",
    "https://reelgood.com/movie/star-wars-1977"
  ],
  "https://reelgood.com/movie/the-panama-papers-2016": [
    "https://reelgood.com/movie/dunkirk-2017",
    "https://reelgood.com/movie/beauty-and-the-beast-2017",
    "https://reelgood.com/movie/the-french-dispatch-2020",
    "https://reelgood.com/movie/good-will-hunting-1997"
  ],
  "https://reelgood.com/movie/hot-tub-time-machine-2010": [
    "https://reelgood.com/movie/dr-strangelove-or-how-i-learned-to-stop-worrying-and-love-the-bomb-1964",
    "https://reelgood.com/movie/shut-up-and-play-the-hits-2012",
    "https://reelgood.com/movie/beauty-and-the-beast-1991"
  ],
  "https://reelgood.com/movie/running-with-the-devil-the-wild-world-of-john-mcafee-2022": [
    "https://reelgood.com/movie/the-evil-dead-1981",
    "https://reelgood.com/movie/no-strings-attached-2011"
  ],
  "https://reelgood.com/movie/gone-baby-gone-2007": [
    "https://reelgood.com/movie/the-perks-of-being-a-wallflower-2012",
    "https://reelgood.com/movie/spider-man-into-the-spider-verse-2018",
    "https://reelgood.com/movie/neal-brennan-blocks-2022"
  ],
  "https://reelgood.com/movie/the-matrix-resurrections-2021": [
    "https://reelgood.com/movie/zero-days-2016"
  ],
  "https://reelgood.com/movie/dunkirk-2017": [
    "https://reelgood.com/movie/mystery-team-2009"
  ],
  "https://reelgood.com/movie/too-funny-to-fail-the-life-and-death-of-the-dana-carvey-show-2017": [
    "https://reelgood.com/movie/spiderman-no-way-home-2021",
    "https://reelgood.com/movie/tower-of-terror-1997",
    "https://reelgood.com/movie/snowpiercer-2013"
  ],
  "https://reelgood.com/movie/under-the-cherry-moon-1986": [
    "https://reelgood.com/movie/the-girl-who-kicked-the-hornets-nest-2009",
    "https://reelgood.com/movie/the-way-way-back-2013",
    "https://reelgood.com/movie/the-great-hack-2019"
  ],
  "https://reelgood.com/movie/sleepaway-camp-1983": [
    "https://reelgood.com/movie/miracle-on-34th-street-1947",
    "https://reelgood.com/movie/the-matrix-resurrections-2021",
    "https://reelgood.com/movie/die-hard-2-1990",
    "https://reelgood.com/movie/wargames-1983"
  ],
  "https://reelgood.com/movie/the-flaw-2011": [
    "https://reelgood.com/movie/caddyshack-1980",
    "https://reelgood.com/movie/blackfish-2013",
    "https://reelgood.com/movie/apollo-13-1995"
  ],
  "https://reelgood.com/movie/tar-2022": [
    "https://reelgood.com/movie/se7en-1995",
    "https://reelgood.com/movie/the-perks-of-being-a-wallflower-2012",
    "https://reelgood.com/movie/frontline-in-the-age-of-ai-2019"
  ],
  "https://reelgood.com/movie/slumberland-2022": [
    "https://reelgood.com/movie/nomadland-2020",
    "https://reelgood.com/movie/malcolm-x-1992",
    "https://reelgood.com/movie/taxi-driver-1976"
  ],
  "https://reelgood.com/movie/wild-wild-west-1999": [
    "https://reelgood.com/movie/mystery-team-2009",
    "https://reelgood.com/movie/the-voyeurs-2021",
    "https://reelgood.com/movie/my-dinner-with-andre-1981"
  ],
  "https://reelgood.com/movie/american-insurrection-2021": [
    "https://reelgood.com/movie/se7en-1995",
    "https://reelgood.com/movie/the-french-dispatch-2020"
  ],
  "https://reelgood.com/movie/die-hard-2-1990": [
    "https://reelgood.com/movie/best-wishes-warmest-regards-a-schitts-creek-farewell-2020"
  ],
  "https://reelgood.com/movie/rbg-2018": [
    "https://reelgood.com/movie/groundhog-day-1993",
    "https://reelgood.com/movie/batman-1989",
    "https://reelgood.com/movie/war-dogs-2016"
  ],
  "https://reelgood.com/movie/all-in-the-fight-for-democracy-2020": [
    "https://reelgood.com/movie/steve-jobs-2015",
    "https://reelgood.com/movie/this-is-the-end-2013"
  ],
  "https://reelgood.com/movie/slay-the-dragon-2020": [
    "https://reelgood.com/movie/the-social-dilemma-2020",
    "https://reelgood.com/movie/the-1517-to-paris-2018",
    "https://reelgood.com/movie/the-girl-who-kicked-the-hornets-nest-2009"
  ],
  "https://reelgood.com/movie/hackers-1995": [
    "https://reelgood.com/movie/22-jump-street-2014"
  ],
  "https://reelgood.com/movie/12-angry-men-1957": [
    "https://reelgood.com/movie/fargo-1996"
  ],
  "https://reelgood.com/movie/gandhi-1982": [
    "https://reelgood.com/movie/forrest-gump-1994",
    "https://reelgood.com/movie/no-time-to-die-2020",
    "https://reelgood.com/movie/vice-2018"
  ],
  "https://reelgood.com/movie/this-is-spinal-tap-1984": [
    "https://reelgood.com/movie/12-angry-men-1957"
  ],
  "https://reelgood.com/movie/dupe-2017-2": [
    "https://reelgood.com/movie/philadelphia-1993",
    "https://reelgood.com/movie/woodstock-99-peace-love-and-rage-2021",
    "https://reelgood.com/movie/weird-the-al-yankovic-story-2010",
    "https://reelgood.com/movie/bridesmaids-2011"
  ],
  "https://reelgood.com/movie/lenny-1974": [
    "https://reelgood.com/movie/god-forbid-2022",
    "https://reelgood.com/movie/the-perks-of-being-a-wallflower-2012",
    "https://reelgood.com/movie/michael-collins-1996",
    "https://reelgood.com/movie/michael-clayton-2007"
  ],
  "https://reelgood.com/movie/22-jump-street-2014": [
    "https://reelgood.com/movie/tenet-2020",
    "https://reelgood.com/movie/the-girl-with-the-dragon-tattoo-2009",
    "https://reelgood.com/movie/the-irishman-2018"
  ],
  "https://reelgood.com/movie/chris-farley-anything-for-a-laugh-2019": [
    "https://reelgood.com/movie/pineapple-express-2008",
    "https://reelgood.com/movie/the-runaways-2010"
  ],
  "https://reelgood.com/movie/apocalypse-now-1979": [
    "https://reelgood.com/movie/hackers-1995",
    "https://reelgood.com/movie/the-beatles-eight-days-a-week-the-touring-years-2016",
    "https://reelgood.com/movie/inside-man-2006"
  ],
  "https://reelgood.com/movie/beauty-and-the-beast-2017": [
    "https://reelgood.com/movie/die-hard-2-1990",
    "https://reelgood.com/movie/silver-linings-playbook-2012"
  ],
  "https://reelgood.com/movie/dan-in-real-life-2007": [
    "https://reelgood.com/movie/gravity-2013"
  ],
  "https://reelgood.com/movie/ex-libris-new-york-public-library-2017": [
    "https://reelgood.com/movie/joker-2019",
    "https://reelgood.com/movie/hackers-1995"
  ],
  "https://reelgood.com/movie/the-world-of-tomorrow-1984": [
    "https://reelgood.com/movie/best-wishes-warmest-regards-a-schitts-creek-farewell-2020",
    "https://reelgood.com/movie/the-irishman-2018",
    "https://reelgood.com/movie/the-martian-2015"
  ],
  "https://reelgood.com/movie/gravity-2013": [
    "https://reelgood.com/movie/spiderman-no-way-home-2021",
    "https://reelgood.com/movie/the-unbearable-weight-of-massive-talent-2021",
    "https://reelgood.com/movie/in-the-loop-2009"
  ],
  "https://reelgood.com/movie/human-nature-2019": [
    "https://reelgood.com/movie/groundhog-day-1993",
    "https://reelgood.com/movie/somebody-i-used-to-know-2023"
  ],
  "https://reelgood.com/movie/the-evil-dead-1981": [
    "https://reelgood.com/movie/snowpiercer-2013"
  ],
  "https://reelgood.com/movie/the-way-way-back-2013": [
    "https://reelgood.com/movie/westworld-1973",
    "https://reelgood.com/movie/beanie-mania-2021"
  ],
  "https://reelgood.com/movie/marriage-story-2019": [
    "https://reelgood.com/movie/caddyshack-1980",
    "https://reelgood.com/movie/scott-pilgrim-vs-the-world-2010",
    "https://reelgood.com/movie/weird-the-al-yankovic-story-2010"
  ],
  "https://reelgood.com/movie/joker-2019": [
    "https://reelgood.com/movie/the-unbearable-weight-of-massive-talent-2021",
    "https://reelgood.com/movie/in-remembrance-of-martin-1998"
  ],
  "https://reelgood.com/movie/space-jam-a-new-legacy-2021": [
    "https://reelgood.com/movie/apocalypse-now-1979",
    "https://reelgood.com/movie/the-bee-gees-how-can-you-mend-a-broken-heart-2020",
    "https://reelgood.com/movie/hotel-rwanda-2004",
    "https://reelgood.com/movie/12-years-a-slave-2013"
  ],
  "https://reelgood.com/movie/28-days-later-2002": [
    "https://reelgood.com/movie/batman-1989"
  ],
  "https://reelgood.com/movie/neal-brennan-blocks-2022": [
    "https://reelgood.com/movie/spectre-2015",
    "https://reelgood.com/movie/guava-island-2019"
  ],
  "https://reelgood.com/movie/dune-2020": [
    "https://reelgood.com/movie/caddyshack-1980"
  ],
  "https://reelgood.com/movie/the-1517-to-paris-2018": [
    "https://reelgood.com/movie/the-irishman-2018",
    "https://reelgood.com/movie/13th-2016",
    "https://reelgood.com/movie/the-blair-witch-project-1999",
    "https://reelgood.com/movie/the-peacemaker-1997"
  ],
  "https://reelgood.com/movie/lincoln-2012": [
    "https://reelgood.com/movie/13th-2016",
    "https://reelgood.com/movie/the-pixar-story-2007"
  ],
  "https://reelgood.com/movie/the-french-dispatch-2020": [
    "https://reelgood.com/movie/the-girl-with-the-dragon-tattoo-2009"
  ],
  "https://reelgood.com/movie/no-strings-attached-2011": [
    "https://reelgood.com/movie/12-angry-men-1957",
    "https://reelgood.com/movie/the-pixar-story-2007"
  ],
  "https://reelgood.com/movie/jfk-1991": [
    "https://reelgood.com/movie/the-matrix-resurrections-2021",
    "https://reelgood.com/movie/dead-poets-society-1989"
  ],
  "https://reelgood.com/movie/no-country-for-old-men-2007": [
    "https://reelgood.com/movie/the-pixar-story-2007",
    "https://reelgood.com/movie/no-time-to-die-2020",
    "https://reelgood.com/movie/woodstock-99-peace-love-and-rage-2021"
  ],
  "https://reelgood.com/movie/the-bee-gees-how-can-you-mend-a-broken-heart-2020": [
    "https://reelgood.com/movie/the-french-dispatch-2020",
    "https://reelgood.com/movie/the-grand-budapest-hotel-2014"
  ],
  "https://reelgood.com/movie/kill-bill-vol-1-2003": [
    "https://reelgood.com/movie/close-encounters-of-the-third-kind-1977",
    "https://reelgood.com/movie/terminator-2-judgment-day-1991"
  ],
  "https://reelgood.com/movie/the-kings-speech-2010": [
    "https://reelgood.com/movie/beauty-and-the-beast-1991",
    "https://reelgood.com/movie/the-grand-budapest-hotel-2014",
    "https://reelgood.com/movie/the-pixar-story-2007",
    "https://reelgood.com/movie/god-forbid-2022"
  ],
  "https://reelgood.com/movie/the-girl-with-the-dragon-tattoo-2009": [
    "https://reelgood.com/movie/tenet-2020"
  ],
  "https://reelgood.com/movie/clue-the-movie-1985": [
    "https://reelgood.com/movie/walle-2008"
  ],
  "https://reelgood.com/movie/the-prestige-2006": [
    "https://reelgood.com/movie/dune-2020",
    "https://reelgood.com/movie/the-day-after-1983"
  ],
  "https://reelgood.com/movie/wet-hot-american-summer-2001": [
    "https://reelgood.com/movie/michael-collins-1996",
    "https://reelgood.com/movie/donnie-darko-2001"
  ],
  "https://reelgood.com/movie/all-the-presidents-men-1976": [
    "https://reelgood.com/movie/love-actually-2003",
    "https://reelgood.com/movie/bridesmaids-2011",
    "https://reelgood.com/movie/the-perks-of-being-a-wallflower-2012"
  ],
  "https://reelgood.com/movie/kimi-2022": [
    "https://reelgood.com/movie/pineapple-express-2008",
    "https://reelgood.com/movie/runaway-2010"
  ],
  "https://reelgood.com/movie/batman-1989": [
    "https://reelgood.com/movie/kimi-2022"
  ],
  "https://reelgood.com/movie/patton-oswalt-i-love-everything-2020": [
    "https://reelgood.com/movie/wont-you-be-my-neighbor-2018",
    "https://reelgood.com/movie/the-words-2012"
  ],
  "https://reelgood.com/movie/nope-2022": [
    "https://reelgood.com/movie/nightcrawler-2014",
    "https://reelgood.com/movie/ai-artificial-intelligence-2001"
  ],
  "https://reelgood.com/movie/the-congress-2013": [
    "https://reelgood.com/movie/steve-jobs-2015",
    "https://reelgood.com/movie/philadelphia-1993",
    "https://reelgood.com/movie/searching-2018"
  ],
  "https://reelgood.com/movie/rocketman-2019": [
    "https://reelgood.com/movie/the-meaning-of-hitler-2021",
    "https://reelgood.com/movie/taxi-driver-1976"
  ],
  "https://reelgood.com/movie/kiss-the-ground-2020": [
    "https://reelgood.com/movie/kill-bill-vol-1-2003",
    "https://reelgood.com/movie/uhf-1989",
    "https://reelgood.com/movie/rbg-2018"
  ],
  "https://reelgood.com/movie/8-mile-2002": [
    "https://reelgood.com/movie/children-of-men-2006"
  ],
  "https://reelgood.com/movie/fargo-1996": [
    "https://reelgood.com/movie/wont-you-be-my-neighbor-2018"
  ],
  "https://reelgood.com/movie/broadcast-news-1987": [
    "https://reelgood.com/movie/vice-2018",
    "https://reelgood.com/movie/donnie-darko-2001"
  ],
  "https://reelgood.com/movie/aladdin-1992-1": [
    "https://reelgood.com/movie/echo-in-the-canyon-2019",
    "https://reelgood.com/movie/netforce-1999",
    "https://reelgood.com/movie/mike-birbiglia-thank-god-for-jokes-2017"
  ],
  "https://reelgood.com/movie/the-usual-suspects-1995": [
    "https://reelgood.com/movie/moonrise-kingdom-2012",
    "https://reelgood.com/movie/a-beautiful-day-in-the-neighborhood-2019",
    "https://reelgood.com/movie/saving-private-ryan-1998"
  ],
  "https://reelgood.com/movie/tower-of-terror-1997": [
    "https://reelgood.com/movie/dead-poets-society-1989"
  ],
  "https://reelgood.com/movie/the-great-gatsby-2013": [
    "https://reelgood.com/movie/broadcast-news-1987",
    "https://reelgood.com/movie/terms-and-conditions-may-apply-2013"
  ],
  "https://reelgood.com/movie/blackfish-2013": [
    "https://reelgood.com/movie/coachella-20-years-in-the-desert-2020",
    "https://reelgood.com/movie/gone-girl-2014"
  ],
  "https://reelgood.com/movie/the-beatles-eight-days-a-week-the-touring-years-2016": [
    "https://reelgood.com/movie/the-internets-own-boy-the-story-of-aaron-swartz-2014"
  ],
  "https://reelgood.com/movie/woodstock-99-peace-love-and-rage-2021": [
    "https://reelgood.com/movie/kimi-2022"
  ],
  "https://reelgood.com/movie/the-meaning-of-hitler-2021": [
    "https://reelgood.com/movie/have-a-good-trip-adventures-in-psychedelics-2020"
  ],
  "https://reelgood.com/movie/hannah-gadsby-nanette-2018": [
    "https://reelgood.com/movie/8-mile-2002",
    "https://reelgood.com/movie/coachella-20-years-in-the-desert-2020"
  ],
  "https://reelgood.com/movie/juno-2007": [
    "https://reelgood.com/movie/lincoln-2012",
    "https://reelgood.com/movie/the-shining-1980",
    "https://reelgood.com/movie/the-great-dictator-1940"
  ],
  "https://reelgood.com/movie/graffiti-bridge-1990": [
    "https://reelgood.com/movie/get-out-2017",
    "https://reelgood.com/movie/mike-birbiglia-thank-god-for-jokes-2017",
    "https://reelgood.com/movie/hot-tub-time-machine-2010"
  ],
  "https://reelgood.com/movie/navalny-2022": [
    "https://reelgood.com/movie/beanie-mania-2021"
  ],
  "https://reelgood.com/movie/the-trial-of-the-chicago-7-2020": [
    "https://reelgood.com/movie/the-lincoln-lawyer-2011",
    "https://reelgood.com/movie/28-days-later-2002",
    "https://reelgood.com/movie/clapping-for-the-wrong-reasons-2013"
  ],
  "https://reelgood.com/movie/vice-2018": [
    "https://reelgood.com/movie/somebody-i-used-to-know-2023"
  ],
  "https://reelgood.com/movie/doctor-strange-2016": [
    "https://reelgood.com/movie/hannah-gadsby-nanette-2018",
    "https://reelgood.com/movie/boogie-nights-1997"
  ],
  "https://reelgood.com/movie/man-on-the-moon-1999": [
    "https://reelgood.com/movie/hamilton-2020",
    "https://reelgood.com/movie/into-the-woods-2014",
    "https://reelgood.com/movie/who-framed-roger-rabbit-1988"
  ],
  "https://reelgood.com/movie/one-flew-over-the-cuckoos-nest-1975": [
    "https://reelgood.com/movie/the-naked-gun-212-the-smell-of-fear-1991",
    "https://reelgood.com/movie/love-actually-2003"
  ],
  "https://reelgood.com/movie/who-framed-roger-rabbit-1988": [
    "https://reelgood.com/movie/jaws-1975",
    "https://reelgood.com/movie/into-the-woods-2014",
    "https://reelgood.com/movie/the-great-gatsby-2013"
  ],
  "https://reelgood.com/movie/netforce-1999": [
    "https://reelgood.com/movie/the-runaways-2010"
  ],
  "https://reelgood.com/movie/the-naked-gun-212-the-smell-of-fear-1991": [
    "https://reelgood.com/movie/the-pixar-story-2007",
    "https://reelgood.com/movie/the-princess-bride-1987"
  ],
  "https://reelgood.com/movie/my-friend-the-mayor-smalltown-politics-in-the-age-of-trump-2020": [
    "https://reelgood.com/movie/the-shining-1980",
    "https://reelgood.com/movie/the-unbearable-weight-of-massive-talent-2021",
    "https://reelgood.com/movie/the-girl-who-played-with-fire-2009"
  ],
  "https://reelgood.com/movie/a-goofy-movie-1995": [
    "https://reelgood.com/movie/psych-the-movie-2017",
    "https://reelgood.com/movie/batman-begins-2005"
  ],
  "https://reelgood.com/movie/edward-scissorhands-1990": [
    "https://reelgood.com/movie/minimalism-a-documentary-about-the-important-things-2016"
  ],
  "https://reelgood.com/movie/adnan-syed-innocent-or-guilty-2016": [
    "https://reelgood.com/movie/good-will-hunting-1997",
    "https://reelgood.com/movie/my-friend-the-mayor-smalltown-politics-in-the-age-of-trump-2020",
    "https://reelgood.com/movie/the-girl-who-played-with-fire-2009",
    "https://reelgood.com/movie/world-of-tomorrow-2015"
  ],
  "https://reelgood.com/movie/the-lincoln-lawyer-2011": [
    "https://reelgood.com/movie/north-korea-inside-the-mind-of-a-dictator-2021"
  ],
  "https://reelgood.com/movie/jerry-and-marge-go-large-2022": [
    "https://reelgood.com/movie/clue-the-movie-1985",
    "https://reelgood.com/movie/hasan-minhaj-the-kings-jester-2022"
  ],
  "https://reelgood.com/movie/john-mulaney-kid-gorgeous-at-radio-city-2018": [
    "https://reelgood.com/movie/donnie-darko-2001"
  ],
  "https://reelgood.com/movie/mister-america-2019": [
    "https://reelgood.com/movie/coachella-20-years-in-the-desert-2020",
    "https://reelgood.com/movie/malcolm-x-1992"
  ],
  "https://reelgood.com/movie/young-frankenstein-1974": [
    "https://reelgood.com/movie/m3gan-2023",
    "https://reelgood.com/movie/no-stone-unturned-2017",
    "https://reelgood.com/movie/love-mercy-2015",
    "https://reelgood.com/movie/kimi-2022"
  ],
  "https://reelgood.com/movie/14-peaks-nothing-is-impossible-2021": [
    "https://reelgood.com/movie/dan-in-real-life-2007",
    "https://reelgood.com/movie/john-mulaney-kid-gorgeous-at-radio-city-2018",
    "https://reelgood.com/movie/michael-clayton-2007"
  ],
  "https://reelgood.com/movie/jim-andy-the-great-beyond-featuring-a-very-special-contractually-obligated-mention-of-tony-clifton-2017": [
    "https://reelgood.com/movie/tenet-2020",
    "https://reelgood.com/movie/this-is-spinal-tap-1984"
  ],
  "https://reelgood.com/movie/no-stone-unturned-2017": [
    "https://reelgood.com/movie/weird-the-al-yankovic-story-2010",
    "https://reelgood.com/movie/uhf-1989",
    "https://reelgood.com/movie/searching-2018"
  ],
  "https://reelgood.com/movie/get-out-2017": [
    "https://reelgood.com/movie/the-jesus-music-2021"
  ],
  "https://reelgood.com/movie/big-hero-6-2014": [
    "https://reelgood.com/movie/a-league-of-their-own-1992",
    "https://reelgood.com/movie/the-big-lebowski-1998",
    "https://reelgood.com/movie/bonnie-and-clyde-1967"
  ],
  "https://reelgood.com/movie/hotel-rwanda-2004": [
    "https://reelgood.com/movie/threads-1984",
    "https://reelgood.com/movie/weird-the-al-yankovic-story-2010"
  ],
  "https://reelgood.com/movie/sunset-boulevard-1950": [
    "https://reelgood.com/movie/ai-artificial-intelligence-2001",
    "https://reelgood.com/movie/my-dinner-with-andre-1981",
    "https://reelgood.com/movie/get-out-2017",
    "https://reelgood.com/movie/best-in-show-2000"
  ],
  "https://reelgood.com/movie/network-1976": [
    "https://reelgood.com/movie/hasan-minhaj-the-kings-jester-2022",
    "https://reelgood.com/movie/the-princess-bride-1987",
    "https://reelgood.com/movie/in-remembrance-of-martin-1998"
  ],
  "https://reelgood.com/movie/friends-the-reunion-2021": [
    "https://reelgood.com/movie/best-in-show-2000",
    "https://reelgood.com/movie/the-great-dictator-1940",
    "https://reelgood.com/movie/little-miss-sunshine-2006",
    "https://reelgood.com/movie/the-french-dispatch-2020"
  ],
  "https://reelgood.com/movie/elektra-2005": [
    "https://reelgood.com/movie/hamilton-2020",
    "https://reelgood.com/movie/the-matrix-resurrections-2021",
    "https://reelgood.com/movie/28-days-later-2002"
  ],
  "https://reelgood.com/movie/the-lobster-2015": [
    "https://reelgood.com/movie/a-hard-days-night-1964",
    "https://reelgood.com/movie/saving-private-ryan-1998"
  ],
  "https://reelgood.com/movie/somebody-i-used-to-know-2023": [
    "https://reelgood.com/movie/have-a-good-trip-adventures-in-psychedelics-2020"
  ],
  "https://reelgood.com/movie/starship-troopers-1997": [
    "https://reelgood.com/movie/walle-2008",
    "https://reelgood.com/movie/best-wishes-warmest-regards-a-schitts-creek-farewell-2020",
    "https://reelgood.com/movie/frontline-in-the-age-of-ai-2019"
  ],
  "https://reelgood.com/movie/spielberg-2017": [
    "https://reelgood.com/movie/ex-machina-2015",
    "https://reelgood.com/movie/the-prestige-2006"
  ],
  "https://reelgood.com/movie/nick-and-norahs-infinite-playlist-2008": [
    "https://reelgood.com/movie/citizen-kane-1941",
    "https://reelgood.com/movie/seven-pounds-2008"
  ],
  "https://reelgood.com/movie/fanboys-2009": [
    "https://reelgood.com/movie/in-remembrance-of-martin-1998",
    "https://reelgood.com/movie/the-jesus-music-2021",
    "https://reelgood.com/movie/13th-2016",
    "https://reelgood.com/movie/clue-the-movie-1985"
  ],
  "https://reelgood.com/movie/michael-clayton-2007": [
    "https://reelgood.com/movie/elysium-2013"
  ],
  "https://reelgood.com/movie/echo-in-the-canyon-2019": [
    "https://reelgood.com/movie/oceans-thirteen-2007"
  ],
  "https://reelgood.com/movie/batman-begins-2005": [
    "https://reelgood.com/movie/oceans-thirteen-2007"
  ],
  "https://reelgood.com/movie/woodstock-1970": [
    "https://reelgood.com/movie/king-a-filmed-record-montgomery-to-memphis-1970",
    "https://reelgood.com/movie/inside-man-2006"
  ],
  "https://reelgood.com/movie/drumline-2002": [
    "https://reelgood.com/movie/the-lego-batman-movie-2017",
    "https://reelgood.com/movie/fargo-1996",
    "https://reelgood.com/movie/threads-1984"
  ],
  "https://reelgood.com/movie/explorer-the-last-tepui-2022": [
    "https://reelgood.com/movie/skyfall-2012"
  ],
  "https://reelgood.com/movie/side-by-side-2012": [
    "https://reelgood.com/movie/saving-private-ryan-1998",
    "https://reelgood.com/movie/king-a-filmed-record-montgomery-to-memphis-1970",
    "https://reelgood.com/movie/michael-collins-1996"
  ],
  "https://reelgood.com/movie/silver-linings-playbook-2012": [
    "https://reelgood.com/movie/my-cousin-vinny-1992"
  ],
  "https://reelgood.com/movie/a-hard-days-night-1964": [
    "https://reelgood.com/movie/coherence-2013"
  ],
  "https://reelgood.com/movie/top-gun-1986": [
    "https://reelgood.com/movie/mike-birbiglia-thank-god-for-jokes-2017",
    "https://reelgood.com/movie/edward-scissorhands-1990",
    "https://reelgood.com/movie/the-princess-bride-1987"
  ],
  "https://reelgood.com/movie/netflix-vs-the-world-2019": [
    "https://reelgood.com/movie/the-voyeurs-2021",
    "https://reelgood.com/movie/explorer-the-last-tepui-2022"
  ],
  "https://reelgood.com/movie/windfall-2022": [
    "https://reelgood.com/movie/what-the-health-2017",
    "https://reelgood.com/movie/once-upon-a-time-in-america-1984",
    "https://reelgood.com/movie/patton-oswalt-i-love-everything-2020"
  ],
  "https://reelgood.com/movie/the-martian-2015": [
    "https://reelgood.com/movie/the-day-after-1983",
    "https://reelgood.com/movie/the-internets-own-boy-the-story-of-aaron-swartz-2014"
  ],
  "https://reelgood.com/movie/seven-pounds-2008": [
    "https://reelgood.com/movie/12-years-a-slave-2013"
  ],
  "https://reelgood.com/movie/westworld-1973": [
    "https://reelgood.com/movie/runaway-2010",
    "https://reelgood.com/movie/into-the-woods-2014"
  ],
  "https://reelgood.com/movie/the-science-of-sleep-2006": [
    "https://reelgood.com/movie/the-ultimate-playlist-of-noise-2021",
    "https://reelgood.com/movie/terms-and-conditions-may-apply-2013",
    "https://reelgood.com/movie/elysium-2013"
  ],
  "https://reelgood.com/movie/green-book-2018": [
    "https://reelgood.com/movie/the-beatles-eight-days-a-week-the-touring-years-2016"
  ],
  "https://reelgood.com/movie/the-words-2012": [
    "https://reelgood.com/movie/clapping-for-the-wrong-reasons-2013",
    "https://reelgood.com/movie/michael-collins-1996"
  ],
  "https://reelgood.com/movie/bridesmaids-2011": [
    "https://reelgood.com/movie/steve-jobs-the-man-in-the-machine-2015"
  ],
  "https://reelgood.com/movie/broken-arrow-1996": [
    "https://reelgood.com/movie/the-great-hack-2019",
    "https://reelgood.com/movie/citizen-kane-1941",
    "https://reelgood.com/movie/westworld-1973"
  ],
  "https://reelgood.com/movie/runaway-1984": [
    "https://reelgood.com/movie/olivia-rodrigo-driving-home-2-u-a-sour-film-2022",
    "https://reelgood.com/movie/seven-pounds-2008",
    "https://reelgood.com/movie/frontline-in-the-age-of-ai-2019",
    "https://reelgood.com/movie/bridesmaids-2011",
    "https://reelgood.com/movie/best-in-show-2000"
  ],
  "https://reelgood.com/movie/a-league-of-their-own-1992": [
    "https://reelgood.com/movie/once-upon-a-time-in-america-1984",
    "https://reelgood.com/movie/the-great-hack-2019",
    "https://reelgood.com/movie/green-book-2018"
  ],
  "https://reelgood.com/movie/whats-eating-gilbert-grape-1993": [
    "https://reelgood.com/movie/wargames-1983",
    "https://reelgood.com/movie/wont-you-be-my-neighbor-2018"
  ],
  "https://reelgood.com/movie/valley-uprising-2014": [
    "https://reelgood.com/movie/toy-story-3-2010",
    "https://reelgood.com/movie/malcolm-x-1992"
  ],
  "https://reelgood.com/movie/spectre-2015": [
    "https://reelgood.com/movie/god-forbid-2022",
    "https://reelgood.com/movie/gravity-2013"
  ],
  "https://reelgood.com/movie/god-forbid-2022": [
    "https://reelgood.com/movie/a-beautiful-day-in-the-neighborhood-2019"
  ],
  "https://reelgood.com/movie/lockdown-2025-2021": [
    "https://reelgood.com/movie/children-of-men-2006",
    "https://reelgood.com/movie/hamilton-2020",
    "https://reelgood.com/movie/my-cousin-vinny-1992",
    "https://reelgood.com/movie/the-world-of-tomorrow-1984",
    "https://reelgood.com/movie/this-is-spinal-tap-1984"
  ],
  "https://reelgood.com/movie/django-unchained-2012": [
    "https://reelgood.com/movie/my-dinner-with-andre-1981",
    "https://reelgood.com/movie/the-internets-own-boy-the-story-of-aaron-swartz-2014",
    "https://reelgood.com/movie/ai-artificial-intelligence-2001"
  ],
  "https://reelgood.com/movie/5050-2011": [
    "https://reelgood.com/movie/coda-2021",
    "https://reelgood.com/movie/runaway-2010",
    "https://reelgood.com/movie/steve-jobs-the-man-in-the-machine-2015"
  ],
  "https://reelgood.com/movie/the-inventor-out-for-blood-in-silicon-valley-2019": [
    "https://reelgood.com/movie/the-girl-who-played-with-fire-2009",
    "https://reelgood.com/movie/terminator-2-judgment-day-1991"
  ],
  "https://reelgood.com/movie/coachella-20-years-in-the-desert-2020": [
    "https://reelgood.com/movie/coherence-2013",
    "https://reelgood.com/movie/the-lincoln-lawyer-2011"
  ],
  "https://reelgood.com/movie/red-dawn-1984": [
    "https://reelgood.com/movie/the-green-mile-1999",
    "https://reelgood.com/movie/nightcrawler-2014"
  ],
  "https://reelgood.com/movie/the-card-counter-2021": [
    "https://reelgood.com/movie/close-encounters-of-the-third-kind-1977",
    "https://reelgood.com/movie/the-green-mile-1999",
    "https://reelgood.com/movie/adnan-syed-innocent-or-guilty-2016"
  ],
  "https://reelgood.com/movie/soul-2020-1": [
    "https://reelgood.com/movie/citizen-kane-1941",
    "https://reelgood.com/movie/no-strings-attached-2011",
    "https://reelgood.com/movie/navalny-2022"
  ],
  "https://reelgood.com/movie/gone-girl-2014": [
    "https://reelgood.com/movie/good-will-hunting-1997"
  ],
  "https://reelgood.com/movie/its-a-wonderful-life-1946": [
    "https://reelgood.com/movie/how-to-survive-a-plague-2012",
    "https://reelgood.com/movie/one-of-us-2017"
  ],
  "https://reelgood.com/movie/the-peacemaker-1997": [
    "https://reelgood.com/movie/green-book-2018",
    "https://reelgood.com/movie/spider-man-into-the-spider-verse-2018"
  ],
  "https://reelgood.com/movie/in-the-loop-2009": [
    "https://reelgood.com/movie/blade-runner-2049-2017",
    "https://reelgood.com/movie/beauty-and-the-beast-1991"
  ],
  "https://reelgood.com/movie/election-1999": [
    "https://reelgood.com/movie/steve-jobs-the-man-in-the-machine-2015"
  ],
  "https://reelgood.com/movie/skyfall-2012": [
    "https://reelgood.com/movie/the-blair-witch-project-1999"
  ],
  "https://reelgood.com/movie/elysium-2013": [
    "https://reelgood.com/movie/dazed-and-confused-1993"
  ],
  "https://reelgood.com/movie/what-the-health-2017": [
    "https://reelgood.com/movie/scott-pilgrim-vs-the-world-2010",
    "https://reelgood.com/movie/the-meaning-of-hitler-2021",
    "https://reelgood.com/movie/die-hard-2-1990"
  ],
  "https://reelgood.com/movie/citizen-kane-1941": [
    "https://reelgood.com/movie/the-beatles-eight-days-a-week-the-touring-years-2016"
  ],
  "https://reelgood.com/movie/12-years-a-slave-2013": [
    "https://reelgood.com/movie/m3gan-2023"
  ],
  "https://reelgood.com/movie/my-dinner-with-andre-1981": [
    "https://reelgood.com/movie/spiderman-no-way-home-2021"
  ],
  "https://reelgood.com/movie/snowpiercer-2013": [
    "https://reelgood.com/movie/dune-2020",
    "https://reelgood.com/movie/the-irishman-2018"
  ],
  "https://reelgood.com/movie/moonrise-kingdom-2012": [
    "https://reelgood.com/movie/star-wars-1977"
  ],
  "https://reelgood.com/movie/war-dogs-2016": [
    "https://reelgood.com/movie/the-girl-who-kicked-the-hornets-nest-2009"
  ],
  "https://reelgood.com/movie/the-jesus-music-2021": [
    "https://reelgood.com/movie/the-meaning-of-hitler-2021",
    "https://reelgood.com/movie/space-jam-a-new-legacy-2021"
  ],
  "https://reelgood.com/movie/apollo-13-1995": [
    "https://reelgood.com/movie/searching-2018",
    "https://reelgood.com/movie/nick-and-norahs-infinite-playlist-2008"
  ],
  "https://reelgood.com/movie/blade-runner-2049-2017": [
    "https://reelgood.com/movie/hamilton-2020"
  ],
  "https://reelgood.com/movie/road-to-perdition-2002": [
    "https://reelgood.com/movie/skyfall-2012",
    "https://reelgood.com/movie/snowpiercer-2013"
  ],
  "https://reelgood.com/movie/boogie-nights-1997": [
    "https://reelgood.com/movie/psych-the-movie-2017",
    "https://reelgood.com/movie/the-science-of-sleep-2006"
  ],
  "https://reelgood.com/movie/minimalism-a-documentary-about-the-important-things-2016": [
    "https://reelgood.com/movie/coda-2021"
  ],
  "https://reelgood.com/movie/best-in-show-2000": [
    "https://reelgood.com/movie/in-remembrance-of-martin-1998"
  ],
  "https://reelgood.com/movie/mike-birbiglia-the-new-one-2019": [
    "https://reelgood.com/movie/guava-island-2019"
  ],
  "https://reelgood.com/movie/toy-story-3-2010": [
    "https://reelgood.com/movie/ex-machina-2015"
  ],
  "https://reelgood.com/movie/clapping-for-the-wrong-reasons-2013": [
    "https://reelgood.com/movie/the-great-dictator-1940"
  ],
  "https://reelgood.com/movie/the-ultimate-playlist-of-noise-2021": [
    "https://reelgood.com/movie/the-act-of-killing-2012"
  ],
  "https://reelgood.com/movie/the-blair-witch-project-1999": [
    "https://reelgood.com/movie/the-social-dilemma-2020"
  ],
  "https://reelgood.com/movie/mystery-team-2009": [
    "https://reelgood.com/movie/oceans-thirteen-2007"
  ],
  "https://reelgood.com/movie/the-big-lebowski-1998": [
    "https://reelgood.com/movie/the-grand-budapest-hotel-2014"
  ],
  "https://reelgood.com/movie/the-lego-batman-movie-2017": [
    "https://reelgood.com/movie/coherence-2013"
  ],
  "https://reelgood.com/movie/how-to-survive-a-plague-2012": [
    "https://reelgood.com/movie/pineapple-express-2008"
  ],
  "https://reelgood.com/movie/the-voyeurs-2021": [
    "https://reelgood.com/movie/olivia-rodrigo-driving-home-2-u-a-sour-film-2022"
  ],
  "https://reelgood.com/movie/the-shining-1980": [
    "https://reelgood.com/movie/north-korea-inside-the-mind-of-a-dictator-2021"
  ],
  "https://reelgood.com/movie/my-cousin-vinny-1992": [
    "https://reelgood.com/movie/the-act-of-killing-2012",
    "https://reelgood.com/movie/wargames-1983"
  ],
  "https://reelgood.com/movie/the-green-mile-1999": [
    "https://reelgood.com/movie/election-1999"
  ],
  "https://reelgood.com/movie/philadelphia-1993": [
    "https://reelgood.com/movie/dazed-and-confused-1993"
  ],
  "https://reelgood.com/movie/a-beautiful-day-in-the-neighborhood-2019": [
    "https://reelgood.com/movie/north-korea-inside-the-mind-of-a-dictator-2021"
  ],
  "https://reelgood.com/movie/terms-and-conditions-may-apply-2013": [
    "https://reelgood.com/movie/olivia-rodrigo-driving-home-2-u-a-sour-film-2022"
  ],
  "https://reelgood.com/movie/the-act-of-killing-2012": [
    "https://reelgood.com/movie/the-big-lebowski-1998"
  ],
  "https://reelgood.com/movie/tenet-2020": [
    "https://reelgood.com/movie/the-internets-own-boy-the-story-of-aaron-swartz-2014"
  ],
  "https://reelgood.com/movie/guava-island-2019": [
    "https://reelgood.com/movie/have-a-good-trip-adventures-in-psychedelics-2020"
  ],
  "https://reelgood.com/movie/uhf-1989": [
    "https://reelgood.com/movie/elysium-2013"
  ],
  "https://reelgood.com/movie/donnie-darko-2001": [
    "https://reelgood.com/movie/m3gan-2023"
  ],
  "https://reelgood.com/movie/love-actually-2003": [
    "https://reelgood.com/movie/guava-island-2019"
  ]
}
