{
  "https://reelgood.com/show/meltdown-three-mile-island-2022": [
    "https://reelgood.com/show/immigration-nation-2020",
    "https://reelgood.com/show/the-civil-war-1990"
  ],
  "https://reelgood.com/show/dirty-money-2018": [
    "https://reelgood.com/show/homeland-2011"
  ],
  "https://reelgood.com/show/raised-by-wolves-2020": [
    "https://reelgood.com/show/rutherford-falls-2021",
    "https://reelgood.com/show/mad-about-you-1992"
  ],
  "https://reelgood.com/show/the-liberator-2020": [
    "https://reelgood.com/show/rutherford-falls-2021"
  ],
  "https://reelgood.com/show/cowboy-bebop-1998": [
    "https://reelgood.com/show/black-mirror-2011"
  ],
  "https://reelgood.com/show/black-mirror-2011": [
    "https://reelgood.com/show/abbott-elementary-2021",
    "https://reelgood.com/show/abbott-elementary-2021"
  ],
  "https://reelgood.com/show/the-staircase-2005": [
    "https://reelgood.com/show/abbott-elementary-2021",
    "https://reelgood.com/show/caliphate-2020"
  ],
  "https://reelgood.com/show/rick-and-morty-2013": [
    "https://reelgood.com/show/wyatt-cenacs-problem-areas-2018",
    "https://reelgood.com/show/staged-2020",
    "https://reelgood.com/show/the-lost-kitchen-2021"
  ],
  "https://reelgood.com/show/this-is-going-to-hurt-2022": [
    "https://reelgood.com/show/wyatt-cenacs-problem-areas-2018",
    "https://reelgood.com/show/how-to-become-a-tyrant-2021"
  ],
  "https://reelgood.com/show/wyatt-cenacs-problem-areas-2018": [
    "https://reelgood.com/show/his-dark-materials-2019"
  ],
  "https://reelgood.com/show/his-dark-materials-2019": [
    "https://reelgood.com/show/bojack-horseman-2014",
    "https://reelgood.com/show/last-week-tonight-with-john-oliver-2014"
  ],
  "https://reelgood.com/show/bojack-horseman-2014": [
    "https://reelgood.com/show/q-into-the-storm-2021",
    "https://reelgood.com/show/rutherford-falls-2021",
    "https://reelgood.com/show/i-love-you-america-2017"
  ],
  "https://reelgood.com/show/hostages-2022": [
    "https://reelgood.com/show/q-into-the-storm-2021",
    "https://reelgood.com/show/nathan-for-you-2013"
  ],
  "https://reelgood.com/show/the-recruit-2022": [
    "https://reelgood.com/show/q-into-the-storm-2021",
    "https://reelgood.com/show/pantheon",
    "https://reelgood.com/show/explained-2018"
  ],
  "https://reelgood.com/show/losers-2019": [
    "https://reelgood.com/show/halt-and-catch-fire-2014"
  ],
  "https://reelgood.com/show/halt-and-catch-fire-2014": [
    "https://reelgood.com/show/the-handmaids-tale-2017"
  ],
  "https://reelgood.com/show/the-expanse-2015": [
    "https://reelgood.com/show/the-handmaids-tale-2017",
    "https://reelgood.com/show/silicon-valley-2014"
  ],
  "https://reelgood.com/show/shrinking-2023": [
    "https://reelgood.com/show/the-handmaids-tale-2017",
    "https://reelgood.com/show/mad-about-you-1992"
  ],
  "https://reelgood.com/show/the-morning-show-2019": [
    "https://reelgood.com/show/the-handmaids-tale-2017"
  ],
  "https://reelgood.com/show/larry-charles-dangerous-world-of-comedy-2019": [
    "https://reelgood.com/show/foundation-2020",
    "https://reelgood.com/show/this-is-going-to-hurt-2022"
  ],
  "https://reelgood.com/show/wild-wild-country-2018": [
    "https://reelgood.com/show/foundation-2020"
  ],
  "https://reelgood.com/show/foundation-2020": [
    "https://reelgood.com/show/all-in-the-family-1971",
    "https://reelgood.com/show/black-mirror-2011"
  ],
  "https://reelgood.com/show/all-in-the-family-1971": [
    "https://reelgood.com/show/genius-2017"
  ],
  "https://reelgood.com/show/genius-2017": [
    "https://reelgood.com/show/candy-2022"
  ],
  "https://reelgood.com/show/candy-2022": [
    "https://reelgood.com/show/this-is-pop-2021"
  ],
  "https://reelgood.com/show/this-is-pop-2021": [
    "https://reelgood.com/show/gilmore-girls-2000"
  ],
  "https://reelgood.com/show/homeland-2011": [
    "https://reelgood.com/show/gilmore-girls-2000"
  ],
  "https://reelgood.com/show/the-movies-that-made-us-2019": [
    "https://reelgood.com/show/gilmore-girls-2000",
    "https://reelgood.com/show/the-vietnam-war-2017"
  ],
  "https://reelgood.com/show/gilmore-girls-2000": [
    "https://reelgood.com/show/rutherford-falls-2021",
    "https://reelgood.com/show/the-handmaids-tale-2017",
    "https://reelgood.com/show/pantheon",
    "https://reelgood.com/show/station-eleven-2021"
  ],
  "https://reelgood.com/show/the-case-against-adnan-syed-2019": [
    "https://reelgood.com/show/rutherford-falls-2021"
  ],
  "https://reelgood.com/show/the-west-wing-1999": [
    "https://reelgood.com/show/mad-about-you-1992",
    "https://reelgood.com/show/kims-convenience-2016",
    "https://reelgood.com/show/the-playlist-2022"
  ],
  "https://reelgood.com/show/the-standups-2017": [
    "https://reelgood.com/show/mad-about-you-1992",
    "https://reelgood.com/show/the-playlist-2022"
  ],
  "https://reelgood.com/show/mythbusters-2003": [
    "https://reelgood.com/show/mad-about-you-1992"
  ],
  "https://reelgood.com/show/whos-talking-to-chris-wallace-2022": [
    "https://reelgood.com/show/mad-about-you-1992",
    "https://reelgood.com/show/the-west-wing-1999"
  ],
  "https://reelgood.com/show/american-crime-story-2016": [
    "https://reelgood.com/show/sex-explained-2020"
  ],
  "https://reelgood.com/show/sex-explained-2020": [
    "https://reelgood.com/show/your-honor-2020"
  ],
  "https://reelgood.com/show/curb-your-enthusiasm-2000": [
    "https://reelgood.com/show/your-honor-2020",
    "https://reelgood.com/show/the-recruit-2022"
  ],
  "https://reelgood.com/show/your-honor-2020": [
    "https://reelgood.com/show/atlanta-2016"
  ],
  "https://reelgood.com/show/trigger-warning-with-killer-mike": [
    "https://reelgood.com/show/atlanta-2016"
  ],
  "https://reelgood.com/show/american-vandal-2017": [
    "https://reelgood.com/show/atlanta-2016"
  ],
  "https://reelgood.com/show/staged-2020": [
    "https://reelgood.com/show/atlanta-2016",
    "https://reelgood.com/show/the-office-2001",
    "https://reelgood.com/show/twin-peaks-1990"
  ],
  "https://reelgood.com/show/bullsht-the-game-show-2022": [
    "https://reelgood.com/show/atlanta-2016",
    "https://reelgood.com/show/cheers-1982"
  ],
  "https://reelgood.com/show/the-vietnam-war-2017": [
    "https://reelgood.com/show/last-week-tonight-with-john-oliver-2014",
    "https://reelgood.com/show/last-week-tonight-with-john-oliver-2014"
  ],
  "https://reelgood.com/show/last-week-tonight-with-john-oliver-2014": [
    "https://reelgood.com/show/the-last-of-us-2023",
    "https://reelgood.com/show/the-handmaids-tale-2017"
  ],
  "https://reelgood.com/show/fear-city-new-york-vs-the-mafia-2020": [
    "https://reelgood.com/show/the-last-of-us-2023"
  ],
  "https://reelgood.com/show/making-it-2018": [
    "https://reelgood.com/show/the-last-of-us-2023"
  ],
  "https://reelgood.com/show/the-last-of-us-2023": [
    "https://reelgood.com/show/star-trek-the-next-generation-1987",
    "https://reelgood.com/show/the-chestnut-man-2021"
  ],
  "https://reelgood.com/show/never-have-i-ever-2020": [
    "https://reelgood.com/show/star-trek-the-next-generation-1987",
    "https://reelgood.com/show/the-mandalorian-2019"
  ],
  "https://reelgood.com/show/undone-2019": [
    "https://reelgood.com/show/star-trek-the-next-generation-1987"
  ],
  "https://reelgood.com/show/better-off-ted-2009": [
    "https://reelgood.com/show/star-trek-the-next-generation-1987"
  ],
  "https://reelgood.com/show/cheers-1982": [
    "https://reelgood.com/show/star-trek-the-next-generation-1987",
    "https://reelgood.com/show/mr-robot-2015",
    "https://reelgood.com/show/chernobyl-2019"
  ],
  "https://reelgood.com/show/the-last-dance-2020": [
    "https://reelgood.com/show/tim-and-erics-bedtime-stories-2013",
    "https://reelgood.com/show/alex-inc-2017",
    "https://reelgood.com/show/dexter-new-blood-2021"
  ],
  "https://reelgood.com/show/tim-and-erics-bedtime-stories-2013": [
    "https://reelgood.com/show/dogs-2018",
    "https://reelgood.com/show/westworld-2016",
    "https://reelgood.com/show/bojack-horseman-2014"
  ],
  "https://reelgood.com/show/dogs-2018": [
    "https://reelgood.com/show/eat-the-rich-the-gamestop-saga-2022",
    "https://reelgood.com/show/twin-peaks-1990",
    "https://reelgood.com/show/station-eleven-2021",
    "https://reelgood.com/show/kims-convenience-2016",
    "https://reelgood.com/show/poker-face",
    "https://reelgood.com/show/broad-city-2014",
    "https://reelgood.com/show/atlanta-2016"
  ],
  "https://reelgood.com/show/south-park-1997": [
    "https://reelgood.com/show/eat-the-rich-the-gamestop-saga-2022",
    "https://reelgood.com/show/love-2016"
  ],
  "https://reelgood.com/show/the-g-word-with-adam-conover-2022": [
    "https://reelgood.com/show/eat-the-rich-the-gamestop-saga-2022",
    "https://reelgood.com/show/never-have-i-ever-2020",
    "https://reelgood.com/show/rick-and-morty-2013"
  ],
  "https://reelgood.com/show/the-good-fight-2017": [
    "https://reelgood.com/show/eat-the-rich-the-gamestop-saga-2022"
  ],
  "https://reelgood.com/show/eat-the-rich-the-gamestop-saga-2022": [
    "https://reelgood.com/show/kims-convenience-2016",
    "https://reelgood.com/show/maid-2021",
    "https://reelgood.com/show/nathan-for-you-2013",
    "https://reelgood.com/show/mad-about-you-1992",
    "https://reelgood.com/show/the-playlist-2022"
  ],
  "https://reelgood.com/show/the-new-york-times-presents-2020": [
    "https://reelgood.com/show/kims-convenience-2016"
  ],
  "https://reelgood.com/show/sick-note-2017": [
    "https://reelgood.com/show/kims-convenience-2016"
  ],
  "https://reelgood.com/show/kims-convenience-2016": [
    "https://reelgood.com/show/poker-face",
    "https://reelgood.com/show/the-handmaids-tale-2017",
    "https://reelgood.com/show/abbott-elementary-2021",
    "https://reelgood.com/show/abbott-elementary-2021",
    "https://reelgood.com/show/station-eleven-2021",
    "https://reelgood.com/show/the-lost-kitchen-2021",
    "https://reelgood.com/show/pantheon",
    "https://reelgood.com/show/severance-2022",
    "https://reelgood.com/show/star-trek-the-next-generation-1987",
    "https://reelgood.com/show/the-handmaids-tale-2017",
    "https://reelgood.com/show/peaky-blinders-2013",
    "https://reelgood.com/show/black-mirror-2011",
    "https://reelgood.com/show/explained-2018",
    "https://reelgood.com/show/star-trek-the-next-generation-1987"
  ],
  "https://reelgood.com/show/the-comedy-lineup-2018": [
    "https://reelgood.com/show/poker-face"
  ],
  "https://reelgood.com/show/yellowstone-2018": [
    "https://reelgood.com/show/poker-face"
  ],
  "https://reelgood.com/show/happy-days-1974": [
    "https://reelgood.com/show/poker-face"
  ],
  "https://reelgood.com/show/poker-face": [
    "https://reelgood.com/show/the-serpent-queen",
    "https://reelgood.com/show/severance-2022",
    "https://reelgood.com/show/the-handmaids-tale-2017",
    "https://reelgood.com/show/the-lost-kitchen-2021",
    "https://reelgood.com/show/peaky-blinders-2013",
    "https://reelgood.com/show/the-playlist-2022"
  ],
  "https://reelgood.com/show/in-the-dark-2019": [
    "https://reelgood.com/show/the-serpent-queen"
  ],
  "https://reelgood.com/show/the-chestnut-man-2021": [
    "https://reelgood.com/show/the-serpent-queen",
    "https://reelgood.com/show/pretend-its-a-city-2021",
    "https://reelgood.com/show/westworld-2016"
  ],
  "https://reelgood.com/show/mister-ed-1961": [
    "https://reelgood.com/show/the-serpent-queen"
  ],
  "https://reelgood.com/show/the-serpent-queen": [
    "https://reelgood.com/show/maine-cabin-masters-2016",
    "https://reelgood.com/show/severance-2022",
    "https://reelgood.com/show/poker-face",
    "https://reelgood.com/show/history-101-2020",
    "https://reelgood.com/show/severance-2022",
    "https://reelgood.com/show/the-lost-kitchen-2021"
  ],
  "https://reelgood.com/show/fargo-2014": [
    "https://reelgood.com/show/maine-cabin-masters-2016"
  ],
  "https://reelgood.com/show/the-pharmacist-2020": [
    "https://reelgood.com/show/maine-cabin-masters-2016"
  ],
  "https://reelgood.com/show/maine-cabin-masters-2016": [
    "https://reelgood.com/show/kims-convenience-2016"
  ],
  "https://reelgood.com/show/master-of-none-2015": [
    "https://reelgood.com/show/kims-convenience-2016"
  ],
  "https://reelgood.com/show/weeds-2005": [
    "https://reelgood.com/show/kims-convenience-2016",
    "https://reelgood.com/show/hostages-2022"
  ],
  "https://reelgood.com/show/dexter-new-blood-2021": [
    "https://reelgood.com/show/kims-convenience-2016",
    "https://reelgood.com/show/mccartney-321-2021",
    "https://reelgood.com/show/westworld-2016"
  ],
  "https://reelgood.com/show/succession-2018": [
    "https://reelgood.com/show/the-beatles-get-back-2021"
  ],
  "https://reelgood.com/show/the-beatles-get-back-2021": [
    "https://reelgood.com/show/the-marvelous-mrs-maisel-2017"
  ],
  "https://reelgood.com/show/the-marvelous-mrs-maisel-2017": [
    "https://reelgood.com/show/pretend-its-a-city-2021"
  ],
  "https://reelgood.com/show/q-into-the-storm-2021": [
    "https://reelgood.com/show/pretend-its-a-city-2021",
    "https://reelgood.com/show/atlanta-2016"
  ],
  "https://reelgood.com/show/welcome-to-sweden-2014": [
    "https://reelgood.com/show/pretend-its-a-city-2021"
  ],
  "https://reelgood.com/show/murder-mountain-2018": [
    "https://reelgood.com/show/broad-city-2014",
    "https://reelgood.com/show/how-the-universe-works-2010",
    "https://reelgood.com/show/shrinking-2023"
  ],
  "https://reelgood.com/show/mash-1972": [
    "https://reelgood.com/show/broad-city-2014"
  ],
  "https://reelgood.com/show/yellowjackets-2021": [
    "https://reelgood.com/show/broad-city-2014"
  ],
  "https://reelgood.com/show/hogans-heroes-1965": [
    "https://reelgood.com/show/broad-city-2014",
    "https://reelgood.com/show/how-i-met-your-father-2022"
  ],
  "https://reelgood.com/show/the-innocence-files-2020": [
    "https://reelgood.com/show/the-civil-war-1990",
    "https://reelgood.com/show/nailed-it-2018",
    "https://reelgood.com/show/hitlers-circle-of-evil-2017"
  ],
  "https://reelgood.com/show/the-civil-war-1990": [
    "https://reelgood.com/show/star-trek-the-next-generation-1987",
    "https://reelgood.com/show/the-lost-kitchen-2021",
    "https://reelgood.com/show/peaky-blinders-2013",
    "https://reelgood.com/show/atlanta-2016",
    "https://reelgood.com/show/the-office-2001"
  ],
  "https://reelgood.com/show/chernobyl-2019": [
    "https://reelgood.com/show/star-trek-the-next-generation-1987",
    "https://reelgood.com/show/kims-convenience-2016",
    "https://reelgood.com/show/gilmore-girls-2000"
  ],
  "https://reelgood.com/show/unnatural-selection-2019": [
    "https://reelgood.com/show/nathan-for-you-2013"
  ],
  "https://reelgood.com/show/rutherford-falls-2021": [
    "https://reelgood.com/show/nathan-for-you-2013",
    "https://reelgood.com/show/pantheon",
    "https://reelgood.com/show/the-handmaids-tale-2017",
    "https://reelgood.com/show/the-lost-kitchen-2021",
    "https://reelgood.com/show/peaky-blinders-2013"
  ],
  "https://reelgood.com/show/under-the-banner-of-heaven-2022": [
    "https://reelgood.com/show/nathan-for-you-2013"
  ],
  "https://reelgood.com/show/nathan-for-you-2013": [
    "https://reelgood.com/show/the-lost-kitchen-2021",
    "https://reelgood.com/show/the-lost-kitchen-2021",
    "https://reelgood.com/show/poker-face",
    "https://reelgood.com/show/poker-face",
    "https://reelgood.com/show/pantheon",
    "https://reelgood.com/show/peaky-blinders-2013"
  ],
  "https://reelgood.com/show/the-mole-2001": [
    "https://reelgood.com/show/the-lost-kitchen-2021"
  ],
  "https://reelgood.com/show/enlightened-2011": [
    "https://reelgood.com/show/the-lost-kitchen-2021"
  ],
  "https://reelgood.com/show/pantheon": [
    "https://reelgood.com/show/the-lost-kitchen-2021",
    "https://reelgood.com/show/station-eleven-2021",
    "https://reelgood.com/show/poker-face",
    "https://reelgood.com/show/abbott-elementary-2021",
    "https://reelgood.com/show/abbott-elementary-2021",
    "https://reelgood.com/show/nathan-for-you-2013",
    "https://reelgood.com/show/abbott-elementary-2021",
    "https://reelgood.com/show/the-serpent-queen",
    "https://reelgood.com/show/the-lost-kitchen-2021",
    "https://reelgood.com/show/explained-2018"
  ],
  "https://reelgood.com/show/hitlers-circle-of-evil-2017": [
    "https://reelgood.com/show/decker-2014",
    "https://reelgood.com/show/mccartney-321-2021"
  ],
  "https://reelgood.com/show/dope": ["https://reelgood.com/show/decker-2014"],
  "https://reelgood.com/show/decker-2014": [
    "https://reelgood.com/show/mindhunter-2017"
  ],
  "https://reelgood.com/show/greatest-events-of-world-war-ii-in-colour-2019": [
    "https://reelgood.com/show/mindhunter-2017"
  ],
  "https://reelgood.com/show/mindhunter-2017": [
    "https://reelgood.com/show/pretend-its-a-city-2021",
    "https://reelgood.com/show/i-love-you-america-2017"
  ],
  "https://reelgood.com/show/when-they-see-us-2019": [
    "https://reelgood.com/show/pretend-its-a-city-2021"
  ],
  "https://reelgood.com/show/alex-inc-2017": [
    "https://reelgood.com/show/maid-2021"
  ],
  "https://reelgood.com/show/the-haunting-of-hill-house-2018": [
    "https://reelgood.com/show/maid-2021"
  ],
  "https://reelgood.com/show/euphoria-2019": [
    "https://reelgood.com/show/maid-2021",
    "https://reelgood.com/show/30-rock-2006"
  ],
  "https://reelgood.com/show/reservation-dogs-2021": [
    "https://reelgood.com/show/maid-2021"
  ],
  "https://reelgood.com/show/real-time-with-bill-maher-2003": [
    "https://reelgood.com/show/its-always-sunny-in-philadelphia-2005"
  ],
  "https://reelgood.com/show/its-always-sunny-in-philadelphia-2005": [
    "https://reelgood.com/show/explained-2018"
  ],
  "https://reelgood.com/show/explained-2018": [
    "https://reelgood.com/show/abbott-elementary-2021"
  ],
  "https://reelgood.com/show/brooklyn-nine-nine-2013": [
    "https://reelgood.com/show/abbott-elementary-2021",
    "https://reelgood.com/show/murder-mountain-2018"
  ],
  "https://reelgood.com/show/the-oa-2016": [
    "https://reelgood.com/show/abbott-elementary-2021",
    "https://reelgood.com/show/the-americans-2013"
  ],
  "https://reelgood.com/show/the-lost-kitchen-2021": [
    "https://reelgood.com/show/abbott-elementary-2021",
    "https://reelgood.com/show/peaky-blinders-2013",
    "https://reelgood.com/show/abbott-elementary-2021",
    "https://reelgood.com/show/peaky-blinders-2013"
  ],
  "https://reelgood.com/show/spycraft-2021": [
    "https://reelgood.com/show/how-the-universe-works-2010"
  ],
  "https://reelgood.com/show/how-the-universe-works-2010": [
    "https://reelgood.com/show/the-simpsons-1989",
    "https://reelgood.com/show/pantheon",
    "https://reelgood.com/show/rutherford-falls-2021"
  ],
  "https://reelgood.com/show/the-simpsons-1989": [
    "https://reelgood.com/show/jack-ryan-2018"
  ],
  "https://reelgood.com/show/unbreakable-kimmy-schmidt-2015": [
    "https://reelgood.com/show/jack-ryan-2018"
  ],
  "https://reelgood.com/show/small-axe-2020": [
    "https://reelgood.com/show/jack-ryan-2018"
  ],
  "https://reelgood.com/show/the-woman-in-the-house-across-the-street-from-the-girl-in-the-window-2022": [
    "https://reelgood.com/show/jack-ryan-2018",
    "https://reelgood.com/show/euphoria-2019"
  ],
  "https://reelgood.com/show/alias-grace-2017": [
    "https://reelgood.com/show/jack-ryan-2018"
  ],
  "https://reelgood.com/show/love-2016": [
    "https://reelgood.com/show/mr-robot-2015",
    "https://reelgood.com/show/the-national-parks-americas-best-idea-2009"
  ],
  "https://reelgood.com/show/who-killed-malcolm-x-2019": [
    "https://reelgood.com/show/mr-robot-2015"
  ],
  "https://reelgood.com/show/the-hidden-lives-of-pets-2022": [
    "https://reelgood.com/show/mr-robot-2015"
  ],
  "https://reelgood.com/show/mr-robot-2015": [
    "https://reelgood.com/show/history-101-2020",
    "https://reelgood.com/show/station-eleven-2021",
    "https://reelgood.com/show/the-mind-explained-2019",
    "https://reelgood.com/show/abbott-elementary-2021",
    "https://reelgood.com/show/the-national-parks-americas-best-idea-2009",
    "https://reelgood.com/show/eat-the-rich-the-gamestop-saga-2022",
    "https://reelgood.com/show/the-national-parks-americas-best-idea-2009",
    "https://reelgood.com/show/peaky-blinders-2013",
    "https://reelgood.com/show/explained-2018"
  ],
  "https://reelgood.com/show/the-sopranos-1999": [
    "https://reelgood.com/show/history-101-2020"
  ],
  "https://reelgood.com/show/1899-2022": [
    "https://reelgood.com/show/history-101-2020"
  ],
  "https://reelgood.com/show/altered-carbon-2018": [
    "https://reelgood.com/show/history-101-2020",
    "https://reelgood.com/show/comedians-in-cars-getting-coffee-2012"
  ],
  "https://reelgood.com/show/nancy-drew-2019": [
    "https://reelgood.com/show/history-101-2020",
    "https://reelgood.com/show/kims-convenience-2016"
  ],
  "https://reelgood.com/show/barry-2018": [
    "https://reelgood.com/show/the-national-parks-americas-best-idea-2009",
    "https://reelgood.com/show/the-worlds-most-extraordinary-homes-2017"
  ],
  "https://reelgood.com/show/trial-by-media-2020": [
    "https://reelgood.com/show/the-national-parks-americas-best-idea-2009"
  ],
  "https://reelgood.com/show/the-plot-against-america-2020": [
    "https://reelgood.com/show/the-national-parks-americas-best-idea-2009"
  ],
  "https://reelgood.com/show/how-i-met-your-father-2022": [
    "https://reelgood.com/show/the-national-parks-americas-best-idea-2009",
    "https://reelgood.com/show/station-eleven-2021"
  ],
  "https://reelgood.com/show/boardwalk-empire-2010": [
    "https://reelgood.com/show/the-national-parks-americas-best-idea-2009"
  ],
  "https://reelgood.com/show/absurd-planet-2020": [
    "https://reelgood.com/show/pantheon"
  ],
  "https://reelgood.com/show/mad-about-you-1992": [
    "https://reelgood.com/show/pantheon",
    "https://reelgood.com/show/poker-face",
    "https://reelgood.com/show/station-eleven-2021",
    "https://reelgood.com/show/pretend-its-a-city-2021",
    "https://reelgood.com/show/broad-city-2014",
    "https://reelgood.com/show/star-trek-the-next-generation-1987",
    "https://reelgood.com/show/the-national-parks-americas-best-idea-2009",
    "https://reelgood.com/show/explained-2018",
    "https://reelgood.com/show/kims-convenience-2016"
  ],
  "https://reelgood.com/show/true-detective-2014": [
    "https://reelgood.com/show/pantheon"
  ],
  "https://reelgood.com/show/comedians-in-cars-getting-coffee-2012": [
    "https://reelgood.com/show/pantheon",
    "https://reelgood.com/show/how-the-universe-works-2010"
  ],
  "https://reelgood.com/show/shark-tank-2009": [
    "https://reelgood.com/show/the-worlds-most-extraordinary-homes-2017"
  ],
  "https://reelgood.com/show/the-worlds-most-extraordinary-homes-2017": [
    "https://reelgood.com/show/broad-city-2014",
    "https://reelgood.com/show/poker-face",
    "https://reelgood.com/show/the-office-2001"
  ],
  "https://reelgood.com/show/our-planet-2019": [
    "https://reelgood.com/show/broad-city-2014"
  ],
  "https://reelgood.com/show/nailed-it-2018": [
    "https://reelgood.com/show/the-newsroom-2012",
    "https://reelgood.com/show/q-into-the-storm-2021"
  ],
  "https://reelgood.com/show/the-newsroom-2012": [
    "https://reelgood.com/show/i-love-you-america-2017"
  ],
  "https://reelgood.com/show/gaming-wall-street-2022": [
    "https://reelgood.com/show/i-love-you-america-2017"
  ],
  "https://reelgood.com/show/the-larry-sanders-show-1992": [
    "https://reelgood.com/show/i-love-you-america-2017"
  ],
  "https://reelgood.com/show/mcmillion-2020": [
    "https://reelgood.com/show/i-love-you-america-2017"
  ],
  "https://reelgood.com/show/heist-2021": [
    "https://reelgood.com/show/search-party-2016"
  ],
  "https://reelgood.com/show/taskmaster-2015": [
    "https://reelgood.com/show/search-party-2016"
  ],
  "https://reelgood.com/show/search-party-2016": [
    "https://reelgood.com/show/the-us-and-the-holocaust-2022"
  ],
  "https://reelgood.com/show/the-us-and-the-holocaust-2022": [
    "https://reelgood.com/show/the-lost-kitchen-2021"
  ],
  "https://reelgood.com/show/blackaf-2020": [
    "https://reelgood.com/show/the-lost-kitchen-2021"
  ],
  "https://reelgood.com/show/a-french-village-2009": [
    "https://reelgood.com/show/the-lost-kitchen-2021"
  ],
  "https://reelgood.com/show/joe-pera-talks-with-you-2018": [
    "https://reelgood.com/show/love-death-robots-2019",
    "https://reelgood.com/show/arcane-2021"
  ],
  "https://reelgood.com/show/love-death-robots-2019": [
    "https://reelgood.com/show/i-love-you-america-2017"
  ],
  "https://reelgood.com/show/i-love-you-america-2017": [
    "https://reelgood.com/show/mad-about-you-1992",
    "https://reelgood.com/show/station-eleven-2021",
    "https://reelgood.com/show/the-national-parks-americas-best-idea-2009",
    "https://reelgood.com/show/pantheon",
    "https://reelgood.com/show/the-civil-war-1990",
    "https://reelgood.com/show/severance-2022"
  ],
  "https://reelgood.com/show/behind-her-eyes-2021": [
    "https://reelgood.com/show/mad-about-you-1992"
  ],
  "https://reelgood.com/show/prehistoric-planet-2022": [
    "https://reelgood.com/show/mad-about-you-1992"
  ],
  "https://reelgood.com/show/billions-2016": [
    "https://reelgood.com/show/mad-about-you-1992"
  ],
  "https://reelgood.com/show/the-circus-2016": [
    "https://reelgood.com/show/mad-about-you-1992"
  ],
  "https://reelgood.com/show/our-great-national-parks-2022": [
    "https://reelgood.com/show/upload-2020"
  ],
  "https://reelgood.com/show/bad-vegan-fame-fraud-fugitives-2022": [
    "https://reelgood.com/show/upload-2020",
    "https://reelgood.com/show/luke-nguyens-street-food-asia-2016"
  ],
  "https://reelgood.com/show/long-way-up-2020": [
    "https://reelgood.com/show/upload-2020"
  ],
  "https://reelgood.com/show/upload-2020": [
    "https://reelgood.com/show/poker-face",
    "https://reelgood.com/show/abbott-elementary-2021",
    "https://reelgood.com/show/rick-and-morty-2013"
  ],
  "https://reelgood.com/show/72-cutest-animals-2016": [
    "https://reelgood.com/show/poker-face"
  ],
  "https://reelgood.com/show/five-came-back-2017": [
    "https://reelgood.com/show/poker-face",
    "https://reelgood.com/show/newsradio-1995"
  ],
  "https://reelgood.com/show/leverage-2008": [
    "https://reelgood.com/show/poker-face"
  ],
  "https://reelgood.com/show/arcane-2021": [
    "https://reelgood.com/show/poker-face",
    "https://reelgood.com/show/the-chestnut-man-2021",
    "https://reelgood.com/show/bojack-horseman-2014"
  ],
  "https://reelgood.com/show/24-2001": [
    "https://reelgood.com/show/never-have-i-ever-2020"
  ],
  "https://reelgood.com/show/the-mandalorian-2019": [
    "https://reelgood.com/show/maid-2021"
  ],
  "https://reelgood.com/show/silicon-valley-2014": [
    "https://reelgood.com/show/maid-2021",
    "https://reelgood.com/show/last-week-tonight-with-john-oliver-2014"
  ],
  "https://reelgood.com/show/how-to-sell-drugs-online-fast-2019": [
    "https://reelgood.com/show/mccartney-321-2021"
  ],
  "https://reelgood.com/show/mccartney-321-2021": [
    "https://reelgood.com/show/severance-2022",
    "https://reelgood.com/show/dogs-2018",
    "https://reelgood.com/show/pantheon"
  ],
  "https://reelgood.com/show/luke-nguyens-street-food-asia-2016": [
    "https://reelgood.com/show/severance-2022",
    "https://reelgood.com/show/mr-robot-2015"
  ],
  "https://reelgood.com/show/dopesick-2021": [
    "https://reelgood.com/show/severance-2022"
  ],
  "https://reelgood.com/show/the-mole-2022": [
    "https://reelgood.com/show/severance-2022"
  ],
  "https://reelgood.com/show/the-americans-2013": [
    "https://reelgood.com/show/poker-face"
  ],
  "https://reelgood.com/show/angie-tribeca-2016": [
    "https://reelgood.com/show/dogs-2018"
  ],
  "https://reelgood.com/show/manifest-2018": [
    "https://reelgood.com/show/dogs-2018"
  ],
  "https://reelgood.com/show/dead-to-me-2019": [
    "https://reelgood.com/show/dogs-2018"
  ],
  "https://reelgood.com/show/letterkenny-2016": [
    "https://reelgood.com/show/dogs-2018",
    "https://reelgood.com/show/nancy-drew-2019"
  ],
  "https://reelgood.com/show/caliphate-2020": [
    "https://reelgood.com/show/dogs-2018",
    "https://reelgood.com/show/station-eleven-2021"
  ],
  "https://reelgood.com/show/wandavision-2021": [
    "https://reelgood.com/show/the-handmaids-tale-2017"
  ],
  "https://reelgood.com/show/newsradio-1995": [
    "https://reelgood.com/show/the-handmaids-tale-2017",
    "https://reelgood.com/show/kims-convenience-2016"
  ],
  "https://reelgood.com/show/the-afterparty-2022": [
    "https://reelgood.com/show/the-handmaids-tale-2017"
  ],
  "https://reelgood.com/show/the-playlist-2022": [
    "https://reelgood.com/show/the-handmaids-tale-2017",
    "https://reelgood.com/show/the-lost-kitchen-2021",
    "https://reelgood.com/show/peaky-blinders-2013"
  ],
  "https://reelgood.com/show/station-eleven-2021": [
    "https://reelgood.com/show/poker-face",
    "https://reelgood.com/show/the-handmaids-tale-2017",
    "https://reelgood.com/show/abbott-elementary-2021",
    "https://reelgood.com/show/abbott-elementary-2021",
    "https://reelgood.com/show/the-lost-kitchen-2021",
    "https://reelgood.com/show/the-playlist-2022",
    "https://reelgood.com/show/pantheon"
  ],
  "https://reelgood.com/show/narcos-2015": [
    "https://reelgood.com/show/staged-2020",
    "https://reelgood.com/show/barry-2018"
  ],
  "https://reelgood.com/show/midnight-mass": [
    "https://reelgood.com/show/staged-2020"
  ],
  "https://reelgood.com/show/the-mindy-project-2012": [
    "https://reelgood.com/show/the-office-2001"
  ],
  "https://reelgood.com/show/bobby-kennedy-for-president-2018": [
    "https://reelgood.com/show/the-office-2001",
    "https://reelgood.com/show/band-of-brothers-2001",
    "https://reelgood.com/show/meltdown-three-mile-island-2022"
  ],
  "https://reelgood.com/show/the-office-2001": [
    "https://reelgood.com/show/broad-city-2014",
    "https://reelgood.com/show/station-eleven-2021",
    "https://reelgood.com/show/peaky-blinders-2013",
    "https://reelgood.com/show/severance-2022"
  ],
  "https://reelgood.com/show/broad-city-2014": [
    "https://reelgood.com/show/severance-2022",
    "https://reelgood.com/show/abbott-elementary-2021",
    "https://reelgood.com/show/the-lost-kitchen-2021",
    "https://reelgood.com/show/jack-ryan-2018"
  ],
  "https://reelgood.com/show/battlestar-galactica-2004": [
    "https://reelgood.com/show/severance-2022"
  ],
  "https://reelgood.com/show/the-leftovers-2014": [
    "https://reelgood.com/show/severance-2022"
  ],
  "https://reelgood.com/show/the-outlaws-2021": [
    "https://reelgood.com/show/severance-2022"
  ],
  "https://reelgood.com/show/how-to-become-a-tyrant-2021": [
    "https://reelgood.com/show/twin-peaks-1990"
  ],
  "https://reelgood.com/show/john-adams-2008": [
    "https://reelgood.com/show/twin-peaks-1990"
  ],
  "https://reelgood.com/show/the-rehearsal-2022": [
    "https://reelgood.com/show/twin-peaks-1990"
  ],
  "https://reelgood.com/show/the-first-lady-2022": [
    "https://reelgood.com/show/twin-peaks-1990"
  ],
  "https://reelgood.com/show/band-of-brothers-2001": [
    "https://reelgood.com/show/twin-peaks-1990"
  ],
  "https://reelgood.com/show/the-billion-dollar-code-2021": [
    "https://reelgood.com/show/twin-peaks-1990"
  ],
  "https://reelgood.com/show/the-righteous-gemstones-2019": [
    "https://reelgood.com/show/twin-peaks-1990"
  ],
  "https://reelgood.com/show/the-wire-2002": [
    "https://reelgood.com/show/twin-peaks-1990"
  ],
  "https://reelgood.com/show/cooked-with-cannabis-2020": [
    "https://reelgood.com/show/station-eleven-2021"
  ],
  "https://reelgood.com/show/the-keepers-2017": [
    "https://reelgood.com/show/nathan-for-you-2013"
  ],
  "https://reelgood.com/show/prison-break-2005": [
    "https://reelgood.com/show/peaky-blinders-2013"
  ],
  "https://reelgood.com/show/how-to-with-john-wilson-2020": [
    "https://reelgood.com/show/peaky-blinders-2013"
  ],
  "https://reelgood.com/show/1883-2021": [
    "https://reelgood.com/show/peaky-blinders-2013",
    "https://reelgood.com/show/chernobyl-2019"
  ],
  "https://reelgood.com/show/30-rock-2006": [
    "https://reelgood.com/show/pantheon",
    "https://reelgood.com/show/the-civil-war-1990"
  ],
  "https://reelgood.com/show/this-hour-has-22-minutes-1993": [
    "https://reelgood.com/show/pantheon"
  ],
  "https://reelgood.com/show/the-jinx-the-life-and-deaths-of-robert-durst-2015": [
    "https://reelgood.com/show/pantheon"
  ],
  "https://reelgood.com/show/maid-2021": [
    "https://reelgood.com/show/the-handmaids-tale-2017",
    "https://reelgood.com/show/the-lost-kitchen-2021"
  ],
  "https://reelgood.com/show/jack-ryan-2018": [
    "https://reelgood.com/show/the-handmaids-tale-2017",
    "https://reelgood.com/show/pantheon",
    "https://reelgood.com/show/pantheon",
    "https://reelgood.com/show/kims-convenience-2016"
  ],
  "https://reelgood.com/show/money-heist-2017": [
    "https://reelgood.com/show/the-handmaids-tale-2017"
  ],
  "https://reelgood.com/show/biography-the-trump-dynasty-2019": [
    "https://reelgood.com/show/mr-robot-2015"
  ],
  "https://reelgood.com/show/the-mind-explained-2019": [
    "https://reelgood.com/show/station-eleven-2021",
    "https://reelgood.com/show/abbott-elementary-2021"
  ],
  "https://reelgood.com/show/the-national-parks-americas-best-idea-2009": [
    "https://reelgood.com/show/station-eleven-2021",
    "https://reelgood.com/show/pantheon",
    "https://reelgood.com/show/star-trek-the-next-generation-1987",
    "https://reelgood.com/show/the-serpent-queen",
    "https://reelgood.com/show/abbott-elementary-2021",
    "https://reelgood.com/show/the-lost-kitchen-2021"
  ],
  "https://reelgood.com/show/twin-peaks-1990": [
    "https://reelgood.com/show/poker-face",
    "https://reelgood.com/show/abbott-elementary-2021",
    "https://reelgood.com/show/severance-2022",
    "https://reelgood.com/show/peaky-blinders-2013",
    "https://reelgood.com/show/severance-2022",
    "https://reelgood.com/show/the-mind-explained-2019",
    "https://reelgood.com/show/atlanta-2016",
    "https://reelgood.com/show/black-mirror-2011"
  ],
  "https://reelgood.com/show/atlanta-2016": [
    "https://reelgood.com/show/abbott-elementary-2021",
    "https://reelgood.com/show/peaky-blinders-2013",
    "https://reelgood.com/show/severance-2022",
    "https://reelgood.com/show/the-playlist-2022"
  ],
  "https://reelgood.com/show/pretend-its-a-city-2021": [
    "https://reelgood.com/show/the-handmaids-tale-2017",
    "https://reelgood.com/show/the-lost-kitchen-2021",
    "https://reelgood.com/show/abbott-elementary-2021",
    "https://reelgood.com/show/star-trek-the-next-generation-1987",
    "https://reelgood.com/show/the-national-parks-americas-best-idea-2009",
    "https://reelgood.com/show/the-civil-war-1990"
  ],
  "https://reelgood.com/show/westworld-2016": [
    "https://reelgood.com/show/dogs-2018",
    "https://reelgood.com/show/pantheon",
    "https://reelgood.com/show/pretend-its-a-city-2021",
    "https://reelgood.com/show/the-mind-explained-2019"
  ],
  "https://reelgood.com/show/dexter-2006": [
    "https://reelgood.com/show/poker-face"
  ],
  "https://reelgood.com/show/the-practice-1997": [
    "https://reelgood.com/show/the-national-parks-americas-best-idea-2009"
  ],
  "https://reelgood.com/show/star-trek-the-next-generation-1987": [
    "https://reelgood.com/show/broad-city-2014",
    "https://reelgood.com/show/peaky-blinders-2013"
  ],
  "https://reelgood.com/show/history-101-2020": [
    "https://reelgood.com/show/poker-face"
  ],
  "https://reelgood.com/show/severance-2022": [
    "https://reelgood.com/show/abbott-elementary-2021",
    "https://reelgood.com/show/the-lost-kitchen-2021",
    "https://reelgood.com/show/the-handmaids-tale-2017"
  ],
  "https://reelgood.com/show/the-handmaids-tale-2017": [
    "https://reelgood.com/show/peaky-blinders-2013",
    "https://reelgood.com/show/severance-2022"
  ]
}
